…
```r
inf <- NOAADB %>% 
    group_by(EVTYPE) %>% 
    summarize(number=n(),max_fatal=max(FATALITIES),tot_fatal=sum(FATALITIES),min(BGN_DATE),max(BGN_DATE))
# Order by Most Lethal Incident
inf[order(-inf[3]),]
```

```
## # A tibble: 985 x 6
##    EVTYPE        number max_fatal tot_fatal `min(BGN_DATE)` `max(BGN_DATE)`
##    <chr>          <int>     <dbl>     <dbl> <date>          <date>         
##  1 HEAT             767       583       937 1993-08-03      2011-11-15     
##  2 TORNADO        60652       158      5633 1950-01-03      2011-11-21     
##  3 EXCESSIVE HE~   1678        99      1903 1994-06-27      2011-09-12     
##  4 EXTREME HEAT      22        57        96 1994-06-01      1995-11-01     
##  5 HEAT WAVE         74        33       172 1994-06-14      1998-08-22     
##  6 TSUNAMI           20        32        33 2006-09-28      2011-03-11     
##  7 UNSEASONABLY~     13        29        29 1995-08-01      1999-07-31     
##  8 TORNADOES, T~      1        25        25 1993-03-12      1993-03-12     
##  9 TROPICAL STO~    690        22        58 1993-01-04      2011-09-04     
## 10 FLASH FLOOD    54277        20       978 1993-01-04      2011-11-29     
## # ... with 975 more rows
```

```r
#And display by number of total fatalities
inf[order(-inf[4]),]
```

```
## # A tibble: 985 x 6
##    EVTYPE        number max_fatal tot_fatal `min(BGN_DATE)` `max(BGN_DATE)`
##    <chr>          <int>     <dbl>     <dbl> <date>          <date>         
##  1 TORNADO        60652       158      5633 1950-01-03      2011-11-21     
##  2 EXCESSIVE HE~   1678        99      1903 1994-06-27      2011-09-12     
##  3 FLASH FLOOD    54277        20       978 1993-01-04      2011-11-29     
##  4 HEAT             767       583       937 1993-08-03      2011-11-15     
##  5 LIGHTNING      15754         5       816 1993-01-03      2011-11-21     
##  6 TSTM WIND     219940        11       504 1955-02-01      2006-09-30     
##  7 FLOOD          25326        15       470 1993-01-01      2011-11-30     
##  8 RIP CURRENT      470         6       368 1994-06-10      2011-11-26     
##  9 HIGH WIND      20212         8       248 1993-01-01      2011-11-30     
## 10 AVALANCHE        386         6       224 1993-01-01      2011-11-13     
## # ... with 975 more rows
```
…
### Most Lethal Incident, based on number of Fatalities and its Type

```r
# Order by Most Lethal Incident
inf[order(-inf[3]),]
```

```
## # A tibble: 424 x 4
##    EVTYPE                  INCIDENTS FATALITIES_BY_INCIDE~ TOTAL_FATALITIES
##    <chr>                       <int>                 <dbl>            <dbl>
##  1 HEAT                         2818                   583             3138
##  2 TORNADO                     67675                   158             5636
##  3 TSUNAMI                        20                    32               33
##  4 UNSEASONABLY WARM AND ~        13                    29               29
##  5 WIND                       254031                    25             1141
##  6 RAIN / SNOW                145611                    22              777
##  7 FLOODS                      87897                    20             2282
##  8 COLD                        22021                    14              728
##  9 FIRE                         4240                    14               90
## 10 LANDSLIDE                     600                    14               38
## # ... with 414 more rows
```

### Incident Group responsible for the biggest number of Fatalities

```r
#And display by number of total fatalities
inf[order(-inf[4]),]
```

```
## # A tibble: 424 x 4
##    EVTYPE      INCIDENTS FATALITIES_BY_INCIDENT TOTAL_FATALITIES
##    <chr>           <int>                  <dbl>            <dbl>
##  1 TORNADO         67675                    158             5636
##  2 HEAT             2818                    583             3138
##  3 FLOODS          87897                     20             2282
##  4 WIND           254031                     25             1141
##  5 LIGHTNING       15754                      5              816
##  6 RAIN / SNOW    145611                     22              777
##  7 COLD            22021                     14              728
##  8 AVALANCHE         386                      6              224
##  9 FIRE             4240                     14               90
## 10 FOG               538                     11               62
## # ... with 414 more rows
```
…
### Geographical distribution of Events
In this section, we group events ordered by the frequency of different US states they appear in. Events impacting the largest number of states are on top.  


```r
res <- subset(NOAADB,StateName(NOAADB$STATE)!=NOAADB$STATE)
res <- res %>% group_by(EVTYPE) %>% summarise(n=length(unique(STATE)))
res[order(-res[2]),]
```

```
## # A tibble: 409 x 2
##    EVTYPE          n
##    <chr>       <int>
##  1 COLD           50
##  2 FLOODS         50
##  3 HAIL           50
##  4 LIGHTNING      50
##  5 RAIN / SNOW    50
##  6 TORNADO        50
##  7 WIND           50
##  8 HEAT           49
##  9 DROUGHT        47
## 10 FIRE           43
## # ... with 399 more rows
```
…
